<?xml version="1.0" standalone="no"?>
<!DOCTYPE svg PUBLIC "-//W3C//DTD SVG 20010904//EN"
 "http://www.w3.org/TR/2001/REC-SVG-20010904/DTD/svg10.dtd">
<svg version="1.0" xmlns="http://www.w3.org/2000/svg"
 width="200.000000pt" height="200.000000pt" viewBox="0 0 200.000000 200.000000"
 preserveAspectRatio="xMidYMid meet">
<metadata>
Created by potrace 1.14, written by Peter Selinger 2001-2017
</metadata>
<g transform="translate(0.000000,200.000000) scale(0.100000,-0.100000)"
fill="#000000" stroke="none">
<path d="M1413 1777 c-101 -52 -171 -108 -193 -153 -11 -22 -32 -94 -46 -160
-14 -65 -31 -147 -39 -182 -16 -74 -114 -278 -155 -322 -30 -32 -69 -39 -92
-17 -7 8 -29 34 -48 60 -19 25 -45 50 -58 56 -26 12 -91 14 -170 4 -82 -9 -42
-23 70 -23 l97 0 28 -37 c15 -21 31 -39 36 -41 4 -2 7 -9 7 -16 0 -19 35 -47
51 -42 8 2 42 7 76 10 l62 6 16 -44 c9 -24 14 -52 11 -63 -4 -10 -43 -44 -88
-77 -87 -63 -79 -61 -223 -57 -33 1 -82 -4 -110 -12 -48 -12 -52 -12 -109 16
-54 27 -61 29 -99 17 -22 -6 -58 -24 -80 -38 -37 -25 -49 -27 -151 -28 -67 -1
-129 4 -156 12 -25 8 -46 14 -47 14 -2 0 -3 -9 -3 -19 0 -21 19 -31 55 -31 23
0 24 -3 27 -97 3 -87 1 -100 -16 -116 -12 -11 -30 -17 -43 -14 -15 3 -23 -1
-23 -9 0 -10 13 -14 43 -14 33 0 53 7 83 30 47 35 61 37 90 9 21 -20 24 -20
97 -5 102 21 134 20 189 -8 25 -13 83 -29 128 -37 75 -12 87 -11 129 5 80 31
87 31 130 -3 21 -17 47 -31 56 -31 10 0 48 31 84 69 l67 68 45 -38 c24 -21 52
-39 61 -39 9 0 31 20 48 45 17 25 32 45 33 45 1 0 35 -11 75 -25 41 -14 81
-25 90 -25 9 0 61 16 117 35 106 36 222 55 301 49 l49 -4 -45 16 c-52 18 -171
13 -260 -11 -64 -17 -82 -19 -57 -4 19 11 24 65 5 71 -8 3 0 20 20 49 67 93
77 123 66 186 -6 32 -13 65 -15 73 -3 12 15 16 111 21 63 4 126 7 140 8 20 1
22 3 10 11 -8 5 -72 10 -142 10 -141 0 -128 -7 -147 81 -9 39 -7 56 14 118 14
40 25 79 25 86 0 7 -27 39 -60 71 l-60 58 0 90 c0 49 4 103 9 120 21 67 30
158 19 180 -12 24 -59 76 -67 76 -3 0 -34 -15 -68 -33z m97 -32 c8 -16 10 -38
6 -67 -4 -24 -12 -68 -17 -98 -5 -30 -12 -95 -15 -145 l-6 -90 62 -64 c39 -40
59 -68 56 -78 -4 -8 -9 -27 -12 -41 -4 -15 -10 -31 -14 -37 -14 -20 -19 -61
-11 -100 5 -22 16 -74 24 -115 32 -157 32 -159 -12 -220 -63 -86 -105 -152
-124 -192 -19 -41 -24 -43 -59 -29 -97 36 -97 36 -142 -8 -23 -23 -48 -41 -56
-41 -8 1 -31 14 -50 30 -40 35 -51 37 -75 10 -21 -23 -35 -18 -35 12 0 12 -4
35 -9 52 -6 17 -16 54 -24 81 -9 28 -18 57 -22 67 -5 12 5 24 37 46 81 56 90
69 83 115 -12 65 -33 107 -55 107 -27 0 -25 12 9 73 81 146 101 195 117 292 3
17 9 39 14 50 5 11 11 34 14 50 14 86 33 156 52 202 16 35 78 93 128 118 17 8
46 24 65 35 38 21 53 18 71 -15z m-526 -1207 l39 -122 -33 -28 c-43 -36 -57
-35 -104 4 l-38 31 -41 -20 c-62 -30 -107 -38 -107 -19 0 8 5 18 10 21 6 3 10
18 10 32 0 27 16 84 31 115 5 10 9 28 9 41 0 13 6 32 14 42 11 16 17 17 42 7
23 -9 37 -9 69 3 22 8 45 14 50 14 6 1 28 -54 49 -121z"/>
<path d="M685 1720 c-4 -6 9 -10 32 -10 28 0 34 3 23 10 -20 13 -47 13 -55 0z"/>
<path d="M579 1682 c-54 -40 -80 -87 -86 -152 -7 -69 9 -120 50 -166 44 -52
82 -68 158 -68 92 0 160 38 198 111 14 27 14 63 1 63 -5 0 -10 -10 -10 -23 0
-30 -53 -93 -95 -113 -84 -39 -199 -9 -248 65 -34 52 -39 74 -31 138 6 50 12
62 55 105 26 26 57 48 68 48 11 0 23 5 26 10 13 21 -52 8 -86 -18z"/>
<path d="M765 1700 c3 -5 12 -10 20 -10 20 0 105 -83 105 -102 0 -18 18 -34
27 -25 11 11 -32 79 -70 112 -37 32 -97 50 -82 25z"/>
<path d="M115 1152 c-54 -10 -115 -35 -115 -48 0 -17 2 -17 47 1 19 8 60 15
89 15 47 0 60 -5 106 -40 29 -22 72 -50 95 -62 38 -20 46 -21 88 -10 25 7 58
12 74 12 16 0 34 7 41 15 16 19 5 19 -90 4 -37 -7 -79 -9 -92 -6 -14 4 -55 30
-91 58 -65 50 -112 69 -152 61z"/>
</g>
</svg>
